portfolio4
…
nell_mean<-feature_mean(nell_feature)
bts_mean<-feature_mean(bts_feature)
vibe_mean<-feature_mean(vibe_feature)
red_mean<-feature_mean(red_feature)
black_mean<-feature_mean(black_feature)
exo_mean<-feature_mean(exo_feature)
bhs_mean<-feature_mean(bhs_feature)
mc_mean<-feature_mean(mc_feature)
jan_mean<-feature_mean(jan_feature)

 ()

nell_feature

## # A tibble: 94 x 14
##    danceability energy   key loudness  mode speechiness acousticness
##           <dbl>  <dbl> <int>    <dbl> <int>       <dbl>        <dbl>
##  1        0.471  0.723     2    -5.47     1      0.025    0.000669  
##  2        0.489  0.887    11    -4.64     0      0.0354   0.00461   
##  3        0.604  0.717     8    -6.64     1      0.0395   0.0581    
##  4        0.555  0.736     7    -6.00     1      0.0244   0.0223    
##  5        0.516  0.743     1    -6.51     0      0.0302   0.00000595
##  6        0.421  0.581     0    -6.92     1      0.029    0.0195    
##  7        0.334  0.555     7    -6.68     0      0.0353   0.0199    
##  8        0.509  0.947     0    -5.32     1      0.0617   0.00538   
##  9        0.771  0.583     2    -8.52     1      0.028    0.0158    
## 10        0.566  0.791     0    -6.14     0      0.0555   0.271     
## #  with 84 more rows, and 7 more variables: instrumentalness <dbl>,
## #   liveness <dbl>, valence <dbl>, tempo <dbl>, id <chr>,
## #   duration_ms <int>, time_signature <int>
…
